{
	"info": {
		"_postman_id": "5bae461c-34d6-46e3-b69e-16ac45035e4c",
		"name": "s33-a1",
		"schema": "https://schema.getpostman.com/json/collection/v2.1.0/collection.json"
	},
	"item": [
		{
			"name": "GETTING A SPECIFIC POST",
			"request": {
				"method": "GET",
				"header": [],
				"url": {
					"raw": "http://jsonplaceholder.typicode.com/todos/1",
					"protocol": "http",
					"host": [
						"jsonplaceholder",
						"typicode",
						"com"
					],
					"path": [
						"todos",
						"1"
					]
				}
			},
			"response": []
		},
		{
			"name": "GETTING ALL TO DO LIST ITEM",
			"request": {
				"method": "GET",
				"header": [],
				"url": {
					"raw": "http://jsonplaceholder.typicode.com/todos",
					"protocol": "http",
					"host": [
						"jsonplaceholder",
						"typicode",
						"com"
					],
					"path": [
						"todos"
					]
				}
			},
			"response": []
		},
		{
			"name": "GETTING A SPECIFIC TO DO LIST ITEM",
			"request": {
				"method": "GET",
				"header": [],
				"url": {
					"raw": "http://jsonplaceholder.typicode.com/todos/1",
					"protocol": "http",
					"host": [
						"jsonplaceholder",
						"typicode",
						"com"
					],
					"path": [
						"todos",
						"1"
					]
				}
			},
			"response": []
		},
		{
			"name": "CREATE A TO DO LIST ITEM USING POST METHOD",
			"request": {
				"method": "POST",
				"header": [],
				"body": {
					"mode": "raw",
					"raw": "{\r\n\t\t\"title\": \"Created To Do List Item\",\r\n\t\t\"completed\": false,\r\n\t\t\"userId\": 1\r\n}",
					"options": {
						"raw": {
							"language": "json"
						}
					}
				},
				"url": {
					"raw": "http://jsonplaceholder.typicode.com/todos",
					"protocol": "http",
					"host": [
						"jsonplaceholder",
						"typicode",
						"com"
					],
					"path": [
						"todos"
					]
				}
			},
			"response": []
		},
		{
			"name": "UPDATE A TO DO LIST ITEM USING PUT METHOD",
			"request": {
				"method": "PUT",
				"header": [],
				"body": {
					"mode": "raw",
					"raw": "{\r\n\t\t\"title\": \"Updated To Do List Item\",\r\n\t\t\"description\": \"To update the my todo list with a different data structure.\",\r\n\t\t\"status\": \"Pending\",\r\n\t\t\"dateCompleted\": \"Pending\",\r\n\t\t\"userId\": 1\r\n\t}",
					"options": {
						"raw": {
							"language": "json"
						}
					}
				},
				"url": {
					"raw": "http://jsonplaceholder.typicode.com/todos/1",
					"protocol": "http",
					"host": [
						"jsonplaceholder",
						"typicode",
						"com"
					],
					"path": [
						"todos",
						"1"
					]
				}
			},
			"response": []
		},
		{
			"name": "UPDATING A TO DO LIST ITEM USING PATCH METHOD",
			"request": {
				"method": "PATCH",
				"header": [],
				"body": {
					"mode": "raw",
					"raw": "{\r\n\t\t\"status\": \"Completed\",\r\n\t\t\"dataCompleted\": \"07/09/21\"\r\n\t}",
					"options": {
						"raw": {
							"language": "json"
						}
					}
				},
				"url": {
					"raw": "http://jsonplaceholder.typicode.com/todos/1",
					"protocol": "http",
					"host": [
						"jsonplaceholder",
						"typicode",
						"com"
					],
					"path": [
						"todos",
						"1"
					]
				}
			},
			"response": []
		},
		{
			"name": "DELETE A TO DO LIST",
			"request": {
				"method": "DELETE",
				"header": [],
				"url": {
					"raw": "http://jsonplaceholder.typicode.com/todos",
					"protocol": "http",
					"host": [
						"jsonplaceholder",
						"typicode",
						"com"
					],
					"path": [
						"todos"
					]
				}
			},
			"response": []
		}
	]
}